…
- verbose:

  boolean. Controls the messages printed on the console.

## Value

A data.frame with the study data.

## Examples

``` r
# If you know the study code you can just read it into R
df <- read_cis("3328")
print(df)
#> # A tibble: 3,206 × 235
#>    ESTUDIO      CUES CCAA      PROV     MUN     CAPITAL TAMUNI  ENTREV  TIPO_TEL
#>    <dbl+lbl>   <dbl> <dbl+lbl> <dbl+lb> <dbl+l> <dbl+l> <dbl+l> <dbl+l> <dbl+lb>
#>  1 3328 [3328]     1 13 [Madr… 28 [Mad… 0 [Mun… 3 [Otr… 2 [2.0… 0 [Ano… 2 [Móvi…
#>  2 3328 [3328]     2 13 [Madr… 28 [Mad… 0 [Mun… 3 [Otr… 2 [2.0… 0 [Ano… 1 [Fijo]
#>  3 3328 [3328]     3 13 [Madr… 28 [Mad… 0 [Mun… 3 [Otr… 2 [2.0… 0 [Ano… 1 [Fijo]
#>  4 3328 [3328]     4 13 [Madr… 28 [Mad… 0 [Mun… 3 [Otr… 2 [2.0… 0 [Ano… 1 [Fijo]
#>  5 3328 [3328]     5 13 [Madr… 28 [Mad… 0 [Mun… 3 [Otr… 2 [2.0… 0 [Ano… 2 [Móvi…
#>  6 3328 [3328]     6 13 [Madr… 28 [Mad… 5 [Alc… 3 [Otr… 5 [100… 0 [Ano… 2 [Móvi…
#>  7 3328 [3328]     7 13 [Madr… 28 [Mad… 5 [Alc… 3 [Otr… 5 [100… 0 [Ano… 2 [Móvi…
#>  8 3328 [3328]     8 13 [Madr… 28 [Mad… 5 [Alc… 3 [Otr… 5 [100… 0 [Ano… 1 [Fijo]
#>  9 3328 [3328]     9 13 [Madr… 28 [Mad… 5 [Alc… 3 [Otr… 5 [100… 0 [Ano… 1 [Fijo]
#> 10 3328 [3328]    10 13 [Madr… 28 [Mad… 5 [Alc… 3 [Otr… 5 [100… 0 [Ano… 2 [Móvi…
#> # ℹ 3,196 more rows
#> # ℹ 226 more variables: SEXO <dbl+lbl>, EDAD <dbl+lbl>, P0 <dbl+lbl>,
#> #   P1 <dbl+lbl>, P1A <dbl+lbl>, P2 <dbl+lbl>, P3 <dbl+lbl>, P4 <dbl+lbl>,
#> #   P5_1 <dbl+lbl>, P5_2 <dbl+lbl>, P5_3 <dbl+lbl>, P5_4 <dbl+lbl>,
#> #   P6 <dbl+lbl>, P6A <dbl+lbl>, P6AR <dbl+lbl>, P6B <dbl+lbl>, P7_1 <dbl+lbl>,
#> #   P7_2 <dbl+lbl>, P7_3 <dbl+lbl>, P7IMPRESA <dbl+lbl>, P7DIGITAL <dbl+lbl>,
#> #   P7TV <dbl+lbl>, P7RADIO <dbl+lbl>, P7A <dbl+lbl>, P7B <dbl+lbl>, …
…
df <- read_cis(studies$estudio[1])
#> Warning: Unknown or uninitialised column: `estudio`.
#> Error in parse_url(url): length(url) == 1 is not TRUE
print(df)
#> # A tibble: 3,206 × 235
#>    ESTUDIO      CUES CCAA      PROV     MUN     CAPITAL TAMUNI  ENTREV  TIPO_TEL
#>    <dbl+lbl>   <dbl> <dbl+lbl> <dbl+lb> <dbl+l> <dbl+l> <dbl+l> <dbl+l> <dbl+lb>
#>  1 3328 [3328]     1 13 [Madr… 28 [Mad… 0 [Mun… 3 [Otr… 2 [2.0… 0 [Ano… 2 [Móvi…
#>  2 3328 [3328]     2 13 [Madr… 28 [Mad… 0 [Mun… 3 [Otr… 2 [2.0… 0 [Ano… 1 [Fijo]
#>  3 3328 [3328]     3 13 [Madr… 28 [Mad… 0 [Mun… 3 [Otr… 2 [2.0… 0 [Ano… 1 [Fijo]
#>  4 3328 [3328]     4 13 [Madr… 28 [Mad… 0 [Mun… 3 [Otr… 2 [2.0… 0 [Ano… 1 [Fijo]
#>  5 3328 [3328]     5 13 [Madr… 28 [Mad… 0 [Mun… 3 [Otr… 2 [2.0… 0 [Ano… 2 [Móvi…
#>  6 3328 [3328]     6 13 [Madr… 28 [Mad… 5 [Alc… 3 [Otr… 5 [100… 0 [Ano… 2 [Móvi…
#>  7 3328 [3328]     7 13 [Madr… 28 [Mad… 5 [Alc… 3 [Otr… 5 [100… 0 [Ano… 2 [Móvi…
#>  8 3328 [3328]     8 13 [Madr… 28 [Mad… 5 [Alc… 3 [Otr… 5 [100… 0 [Ano… 1 [Fijo]
#>  9 3328 [3328]     9 13 [Madr… 28 [Mad… 5 [Alc… 3 [Otr… 5 [100… 0 [Ano… 1 [Fijo]
#> 10 3328 [3328]    10 13 [Madr… 28 [Mad… 5 [Alc… 3 [Otr… 5 [100… 0 [Ano… 2 [Móvi…
#> # ℹ 3,196 more rows
#> # ℹ 226 more variables: SEXO <dbl+lbl>, EDAD <dbl+lbl>, P0 <dbl+lbl>,
#> #   P1 <dbl+lbl>, P1A <dbl+lbl>, P2 <dbl+lbl>, P3 <dbl+lbl>, P4 <dbl+lbl>,
#> #   P5_1 <dbl+lbl>, P5_2 <dbl+lbl>, P5_3 <dbl+lbl>, P5_4 <dbl+lbl>,
#> #   P6 <dbl+lbl>, P6A <dbl+lbl>, P6AR <dbl+lbl>, P6B <dbl+lbl>, P7_1 <dbl+lbl>,
#> #   P7_2 <dbl+lbl>, P7_3 <dbl+lbl>, P7IMPRESA <dbl+lbl>, P7DIGITAL <dbl+lbl>,
#> #   P7TV <dbl+lbl>, P7RADIO <dbl+lbl>, P7A <dbl+lbl>, P7B <dbl+lbl>, …
```
