…
- ...:

  Additional parameters (not used).

## Value

A data.frame with the search results.

## Examples

``` r
# Search by search terms
studies <- search_studies(q = "postelectoral")
print(studies)
#> # A tibble: 100 × 4
#>    estudio fecha      title                                   url               
#>    <chr>   <date>     <chr>                                   <chr>             
#>  1 1497    1985-12-01 Postelectoral Galicia 1985              https://www.cis.e…
#>  2 1292    1981-11-03 Postelectoral Galicia 1981              https://www.cis.e…
#>  3 2199    1995-11-28 Postelectoral Cataluña 1995             https://www.cis.e…
#>  4 1998    1992-03-25 Postelectoral Cataluña 1992             https://www.cis.e…
#>  5 1750    1988-06-02 Postelectoral Cataluña 1988             https://www.cis.e…
#>  6 1903    1990-11-08 Postelectoral País Vasco 1990           https://www.cis.e…
#>  7 1402    1984-03-01 Postelectoral País Vasco 1984           https://www.cis.e…
#>  8 2120    1994-10-28 Postelectoral País Vasco 1994           https://www.cis.e…
#>  9 1565    1986-12-01 Postelectoral País Vasco 1986           https://www.cis.e…
#> 10 1327    1982-11-01 Postelectoral elecciones generales 1982 https://www.cis.e…
#> # ℹ 90 more rows

# Narrow the search by dates
studies <- search_studies(q = "postelectoral",
                          from = "2011-01-01",
                          to = "2020-01-01")
print(studies)
#> # A tibble: 53 × 4
#>    estudio fecha      title                                                url  
#>    <chr>   <date>     <chr>                                                <chr>
#>  1 3248    2019-05-10 Postelectoral elecciones generales 2019              http…
#>  2 3145    2016-07-04 Postelectoral elecciones generales 2016              http…
#>  3 2890    2011-05-27 Postelectoral elecciones municipales 2011. Barcelona http…
#>  4 3085    2015-05-31 Postelectoral elecciones municipales 2015. Barcelona http…
#>  5 3155    2016-09-28 Postelectoral de Galicia. Elecciones autonómicas 20… http…
#>  6 3202    2017-12-28 Postelectoral de Cataluña. Elecciones autonómicas 2… http…
#>  7 3113    2015-09-30 Postelectoral de Cataluña. Elecciones autonómicas 2… http…
#>  8 3028    2014-05-29 Postelectoral elecciones al Parlamento Europeo 2014  http…
#>  9 2963    2012-10-25 Postelectoral de Galicia. Elecciones autonómicas 20… http…
#> 10 3253    2019-06-17 Postelectoral elecciones autonómicas y municipales … http…
#> # ℹ 43 more rows

# Use the catalogo parameter to search for questions ("pregunta") or data series ("serie")
studies <- search_studies(q = "ideologia",
                          from = "2011-01-01",
                          to = "2020-01-01",
                          catalogo = "serie")
print(studies)
#> # A tibble: 61 × 4
#>    estudio    fecha      title                                             url  
#>    <chr>      <date>     <chr>                                             <chr>
#>  1 24/11/2011 2010-01-09 Autodefinición de su ideología política (I) (MR-… http…
#>  2 21/09/2017 1993-03-23 Grado de aceptación en España de un posible  par… http…
#>  3 25/11/2017 1997-12-05 Escala de autoubicación ideológica (0-10) (I)     http…
#>  4 21/09/2017 2006-01-12 Escala de autoubicación ideológica (0-10) (Andal… http…
#>  5 23/03/2015 1987-01-27 Escala de autoubicación ideológica (1-10) (Sevil… http…
#>  6 17/03/2011 1987-02-03 Escala de autoubicación ideológica (1-10) (Vitor… http…
#>  7 23/03/2015 1986-04-11 Escala de autoubicación ideológica (1-10) (Santi… http…
#>  8 25/02/2015 1997-06-13 Escala de autoubicación ideológica (1-10) (debat… http…
#>  9 12/09/2015 1987-01-29 Escala de autoubicación ideológica (1-10) (16 y … http…
#> 10 01/10/2019 1992-11-08 Escala de ubicación ideológica (1-10) de partido… http…
#> # ℹ 51 more rows
```
